<?xml version="1.0" encoding="UTF-8" standalone="no"?>
<!-- Created with Inkscape (http://www.inkscape.org/) -->

<svg
   width="210mm"
   height="297mm"
   viewBox="0 0 210 297"
   version="1.1"
   id="svg1"
   inkscape:version="1.3 (0e150ed6c4, 2023-07-21)"
   sodipodi:docname="drawing.svg"
   xmlns:inkscape="http://www.inkscape.org/namespaces/inkscape"
   xmlns:sodipodi="http://sodipodi.sourceforge.net/DTD/sodipodi-0.dtd"
   xmlns="http://www.w3.org/2000/svg"
   xmlns:svg="http://www.w3.org/2000/svg">
  <sodipodi:namedview
     id="namedview1"
     pagecolor="#ffffff"
     bordercolor="#000000"
     borderopacity="0.25"
     inkscape:showpageshadow="2"
     inkscape:pageopacity="0.0"
     inkscape:pagecheckerboard="0"
     inkscape:deskcolor="#d1d1d1"
     inkscape:document-units="mm"
     inkscape:zoom="1"
     inkscape:cx="365.5"
     inkscape:cy="515.5"
     inkscape:window-width="1892"
     inkscape:window-height="1009"
     inkscape:window-x="0"
     inkscape:window-y="0"
     inkscape:window-maximized="1"
     inkscape:current-layer="layer1" />
  <defs
     id="defs1" />
  <g
     inkscape:label="Layer 1"
     inkscape:groupmode="layer"
     id="layer1">
    <rect
       style="fill:{background};fill-opacity:1;stroke-width:1.22524"
       id="rect2"
       width="177.8239"
       height="100.02594"
       x="14.653513"
       y="86.957146"
       inkscape:export-filename="rect2.png"
       inkscape:export-xdpi="548.49768"
       inkscape:export-ydpi="548.49768"
       inkscape:label="background" />
    <g
       id="g2"
       transform="translate(10.258894,26.324729)"
       inkscape:label="spokes">
      <path
         style="color:#000000;clip-rule:nonzero;display:inline;overflow:visible;visibility:visible;isolation:auto;mix-blend-mode:normal;color-interpolation:sRGB;color-interpolation-filters:linearRGB;solid-color:#000000;solid-opacity:1;fill:{color6};fill-opacity:1;fill-rule:evenodd;stroke:none;stroke-width:0.416584;stroke-linecap:butt;stroke-linejoin:round;stroke-miterlimit:4;stroke-dasharray:none;stroke-dashoffset:0;stroke-opacity:1;color-rendering:auto;image-rendering:auto;shape-rendering:auto;text-rendering:auto;enable-background:accumulate"
         d="m 85.852306,99.283333 -16.971308,29.391847 -3.962379,-6.71673 4.573872,-7.87171 -9.083651,-0.0239 -1.935923,-3.35625 1.976883,-3.4328 12.929636,0.0408 4.646819,-8.010957 z"
         id="use4863-2"
         inkscape:connector-curvature="0"
         sodipodi:nodetypes="cccccccccc"
         inkscape:label="W" />
      <path
         style="color:#000000;clip-rule:nonzero;display:inline;overflow:visible;visibility:visible;isolation:auto;mix-blend-mode:normal;color-interpolation:sRGB;color-interpolation-filters:linearRGB;solid-color:#000000;solid-opacity:1;fill:{color6};fill-opacity:1;fill-rule:evenodd;stroke:none;stroke-width:0.416584;stroke-linecap:butt;stroke-linejoin:round;stroke-miterlimit:4;stroke-dasharray:none;stroke-dashoffset:0;stroke-opacity:1;color-rendering:auto;image-rendering:auto;shape-rendering:auto;text-rendering:auto;enable-background:accumulate"
         d="m 87.154286,122.77873 33.939754,0.001 -3.83568,6.78987 -9.10403,-0.0252 4.52116,7.8786 -1.93864,3.35469 -3.96133,0.004 -6.42948,-11.21779 -9.261118,-0.0188 z"
         id="use4865-9"
         inkscape:connector-curvature="0"
         sodipodi:nodetypes="cccccccccc"
         inkscape:label="SE" />
      <path
         style="color:#000000;clip-rule:nonzero;display:inline;overflow:visible;visibility:visible;isolation:auto;mix-blend-mode:normal;color-interpolation:sRGB;color-interpolation-filters:linearRGB;solid-color:#000000;solid-opacity:1;fill:{color6};fill-opacity:1;fill-rule:evenodd;stroke:none;stroke-width:0.416584;stroke-linecap:butt;stroke-linejoin:round;stroke-miterlimit:4;stroke-dasharray:none;stroke-dashoffset:0;stroke-opacity:1;color-rendering:auto;image-rendering:auto;shape-rendering:auto;text-rendering:auto;enable-background:accumulate"
         d="m 106.90842,109.89994 -16.968438,-29.393507 7.79805,-0.0731 4.530158,7.89694 4.56251,-7.85474 3.87455,0.002 1.98446,3.42844 -6.50017,11.17698 4.61429,8.029747 z"
         id="use4867-1"
         inkscape:connector-curvature="0"
         sodipodi:nodetypes="cccccccccc"
         inkscape:label="NE" />
      <path
         sodipodi:nodetypes="cccccccccc"
         inkscape:connector-curvature="0"
         id="path4873-2"
         d="m 79.727737,111.39083 16.968435,29.39351 -7.79806,0.0731 -4.530158,-7.89694 -4.562494,7.85474 -3.874564,-10e-4 -1.984449,-3.42843 6.50017,-11.17699 -4.614291,-8.02975 z"
         style="color:#000000;clip-rule:nonzero;display:inline;overflow:visible;visibility:visible;isolation:auto;mix-blend-mode:normal;color-interpolation:sRGB;color-interpolation-filters:linearRGB;solid-color:#000000;solid-opacity:1;fill:{color4};fill-opacity:1;fill-rule:evenodd;stroke:none;stroke-width:0.416584;stroke-linecap:butt;stroke-linejoin:round;stroke-miterlimit:4;stroke-dasharray:none;stroke-dashoffset:0;stroke-opacity:1;color-rendering:auto;image-rendering:auto;shape-rendering:auto;text-rendering:auto;enable-background:accumulate"
         inkscape:label="SW" />
      <path
         sodipodi:nodetypes="cccccccccc"
         inkscape:connector-curvature="0"
         id="use4875-7"
         d="m 99.436722,98.437763 -33.939736,-0.001 3.835672,-6.78989 9.104033,0.0252 -4.521156,-7.8786 1.938641,-3.35469 3.961331,-0.004 6.429465,11.2178 9.26112,0.0188 z"
         style="color:#000000;clip-rule:nonzero;display:inline;overflow:visible;visibility:visible;isolation:auto;mix-blend-mode:normal;color-interpolation:sRGB;color-interpolation-filters:linearRGB;solid-color:#000000;solid-opacity:1;fill:{color4};fill-opacity:1;fill-rule:evenodd;stroke:none;stroke-width:0.416584;stroke-linecap:butt;stroke-linejoin:round;stroke-miterlimit:4;stroke-dasharray:none;stroke-dashoffset:0;stroke-opacity:1;color-rendering:auto;image-rendering:auto;shape-rendering:auto;text-rendering:auto;enable-background:accumulate"
         inkscape:label="NW" />
      <path
         sodipodi:nodetypes="cccccccccc"
         inkscape:connector-curvature="0"
         id="use4877-0"
         d="m 100.76082,122.00118 16.97132,-29.391837 3.96237,6.71673 -4.57387,7.871707 9.08365,0.0239 1.93593,3.35625 -1.97688,3.4328 -12.92964,-0.0408 -4.64682,8.01097 z"
         style="color:#000000;clip-rule:nonzero;display:inline;overflow:visible;visibility:visible;isolation:auto;mix-blend-mode:normal;color-interpolation:sRGB;color-interpolation-filters:linearRGB;solid-color:#000000;solid-opacity:1;fill:{color4};fill-opacity:1;fill-rule:evenodd;stroke:none;stroke-width:0.416584;stroke-linecap:butt;stroke-linejoin:round;stroke-miterlimit:4;stroke-dasharray:none;stroke-dashoffset:0;stroke-opacity:1;color-rendering:auto;image-rendering:auto;shape-rendering:auto;text-rendering:auto;enable-background:accumulate"
         inkscape:label="E" />
    </g>
  </g>
</svg>
